
Autorzy: Kamil Kozłowski, Maciej Michalski

Informacje o 17 filmach.

╔════════════════════════════════════════════════════════════════════════════════╗
║Tytuł:                                                                          ║
║  2001: A Space Odyssey                                                         ║
║  (2001: Odyseja kosmiczna)                                                     ║
╟────────────────────────────────────────────────────────────────────────────────╢
║Data wydania: 15.5.1968(47 lat temu)                                            ║
║Czas trwania: 160 min                                                           ║
╟────────────────────────────────────────────────────────────────────────────────╢
║Gatunki:                                                                        ║
║  science-fiction                                                               ║
║  thriller                                                                      ║
║  mystery                                                                       ║
║                                                                                ║
╟────────────────────────────────────────────────────────────────────────────────╢
║Reżyseria:                                                                      ║
║  Stanley Kubrick                                                               ║
║    Data urodzenia: 26.7.1928 (40 lat podczas premiery)                         ║
║    Data śmierci: 7.3.1999                                                      ║
║                                                                                ║
╟────────────────────────────────────────────────────────────────────────────────╢
║Twórcy scenariusza:                                                             ║
║Scenarzyści:                                                                    ║
║  Stanley Kubrick                                                               ║
║    Data urodzenia: 26.7.1928 (40 lat podczas premiery)                         ║
║    Data śmierci: 7.3.1999                                                      ║
║  Arthur C. Clarke                                                              ║
║    Data urodzenia: 16.12.1917 (51 lat podczas premiery)                        ║
║    Data śmierci: 19.3.2008                                                     ║
║Na podstawie "2001: A Space Odyssey" autorstwa:                                 ║
║  Arthur C. Clarke                                                              ║
║    Data urodzenia: 16.12.1917 (51 lat podczas premiery)                        ║
║    Data śmierci: 19.3.2008                                                     ║
║                                                                                ║
╟────────────────────────────────────────────────────────────────────────────────╢
║Obsada:                                                                         ║
║  Keir Dullea                                                                   ║
║    Data urodzenia: 30.5.1936 (32 lat podczas premiery)                         ║
║    jako: Dave Bowman                                                           ║
║  Gary Lockwood                                                                 ║
║    Data urodzenia: 21.2.1937 (31 lat podczas premiery)                         ║
║    jako: Frank Poole                                                           ║
║                                                                                ║
╟────────────────────────────────────────────────────────────────────────────────╢
║Budżet:    10 mln USD                                                           ║
║Przychód:  200 mln USD                                                          ║
║Zysk:      190.0 mln USD                                                        ║
╟────────────────────────────────────────────────────────────────────────────────╢
║Oceny:                                                                          ║
║  IMDb:             8.3                                                         ║
║  Rotten Tomatoes:  96                                                          ║
╟────────────────────────────────────────────────────────────────────────────────╢
║Opis:                                                                           ║
║Humanity finds a mysterious, obviously artificial, object buried beneath the    ║
║Lunar surface and, with the intelligent computer H.A.L. 9000, sets off on a     ║
║quest.                                                                          ║
╚════════════════════════════════════════════════════════════════════════════════╝

╔════════════════════════════════════════════════════════════════════════════════╗
║Tytuł:                                                                          ║
║  A Beautiful Mind                                                              ║
║  (Piękny umysł)                                                                ║
╟────────────────────────────────────────────────────────────────────────────────╢
║Data wydania: 13.12.2001(14 lat temu)                                           ║
║Czas trwania: 135 min                                                           ║
╟────────────────────────────────────────────────────────────────────────────────╢
║Gatunki:                                                                        ║
║  biography                                                                     ║
║  drama                                                                         ║
║                                                                                ║
╟────────────────────────────────────────────────────────────────────────────────╢
║Reżyseria:                                                                      ║
║  Ron Howard                                                                    ║
║    Data urodzenia: 1.3.1954 (47 lat podczas premiery)                          ║
║                                                                                ║
╟────────────────────────────────────────────────────────────────────────────────╢
║Twórcy scenariusza:                                                             ║
║Scenarzyści:                                                                    ║
║  Akiva Goldsman                                                                ║
║    Data urodzenia: 7.7.1962 (39 lat podczas premiery)                          ║
║Na podstawie "A Beautiful Mind" autorstwa:                                      ║
║  Sylvia Nasar                                                                  ║
║    Data urodzenia: 17.8.1947 (54 lat podczas premiery)                         ║
║                                                                                ║
╟────────────────────────────────────────────────────────────────────────────────╢
║Obsada:                                                                         ║
║  Russell Crowe                                                                 ║
║    Data urodzenia: 7.4.1964 (37 lat podczas premiery)                          ║
║    jako: John Nash                                                             ║
║  Ed Harris                                                                     ║
║    Data urodzenia: 28.11.1950 (51 lat podczas premiery)                        ║
║    jako: Parcher                                                               ║
║                                                                                ║
╟────────────────────────────────────────────────────────────────────────────────╢
║Budżet:    58 mln USD                                                           ║
║Przychód:  313.5 mln USD                                                        ║
║Zysk:      255.5 mln USD                                                        ║
╟────────────────────────────────────────────────────────────────────────────────╢
║Oceny:                                                                          ║
║  IMDb:             8.2                                                         ║
║  Rotten Tomatoes:  75                                                          ║
╟────────────────────────────────────────────────────────────────────────────────╢
║Opis:                                                                           ║
║A group of professional bank robbers start to feel the heat from police when    ║
║they unknowingly leave a clue at their latest heist.                            ║
╚════════════════════════════════════════════════════════════════════════════════╝

╔════════════════════════════════════════════════════════════════════════════════╗
║Tytuł:                                                                          ║
║  Birdman: Or (The Unexpected Virtue of Ignorance)                              ║
║  (Birdman)                                                                     ║
╟────────────────────────────────────────────────────────────────────────────────╢
║Data wydania: 17.10.2014(1 lat temu)                                            ║
║Czas trwania: 119 min                                                           ║
╟────────────────────────────────────────────────────────────────────────────────╢
║Gatunki:                                                                        ║
║  drama                                                                         ║
║  comedy                                                                        ║
║                                                                                ║
╟────────────────────────────────────────────────────────────────────────────────╢
║Reżyseria:                                                                      ║
║  Alejandro González Iñárritu                                                   ║
║    Data urodzenia: 15.8.1963 (51 lat podczas premiery)                         ║
║                                                                                ║
╟────────────────────────────────────────────────────────────────────────────────╢
║Twórcy scenariusza:                                                             ║
║Scenarzyści:                                                                    ║
║  Alejandro González Iñárritu                                                   ║
║    Data urodzenia: 15.8.1963 (51 lat podczas premiery)                         ║
║                                                                                ║
╟────────────────────────────────────────────────────────────────────────────────╢
║Obsada:                                                                         ║
║  Michael Keaton                                                                ║
║    Data urodzenia: 5.9.1951 (63 lat podczas premiery)                          ║
║    jako: Riggan                                                                ║
║  Emma Stone                                                                    ║
║    Data urodzenia: 6.11.1988 (26 lat podczas premiery)                         ║
║    jako: Sam                                                                   ║
║                                                                                ║
╟────────────────────────────────────────────────────────────────────────────────╢
║Budżet:    18 mln USD                                                           ║
║Przychód:  103.2 mln USD                                                        ║
║Zysk:      85.2 mln USD                                                         ║
╟────────────────────────────────────────────────────────────────────────────────╢
║Oceny:                                                                          ║
║  IMDb:             7.8                                                         ║
║  Rotten Tomatoes:  92                                                          ║
╟────────────────────────────────────────────────────────────────────────────────╢
║Opis:                                                                           ║
║Illustrated upon the progress of his latest Broadway play, a former popular     ║
║actor's struggle to cope with his current life as a wasted actor is shown.      ║
╚════════════════════════════════════════════════════════════════════════════════╝

╔════════════════════════════════════════════════════════════════════════════════╗
║Tytuł:                                                                          ║
║  Django Unchained                                                              ║
║  (Django)                                                                      ║
╟────────────────────────────────────────────────────────────────────────────────╢
║Data wydania: 25.12.2012(3 lat temu)                                            ║
║Czas trwania: 165 min                                                           ║
╟────────────────────────────────────────────────────────────────────────────────╢
║Gatunki:                                                                        ║
║  western                                                                       ║
║                                                                                ║
╟────────────────────────────────────────────────────────────────────────────────╢
║Reżyseria:                                                                      ║
║  Quentin Tarantino                                                             ║
║    Data urodzenia: 27.3.1963 (49 lat podczas premiery)                         ║
║                                                                                ║
╟────────────────────────────────────────────────────────────────────────────────╢
║Twórcy scenariusza:                                                             ║
║Scenarzyści:                                                                    ║
║  Quentin Tarantino                                                             ║
║    Data urodzenia: 27.3.1963 (49 lat podczas premiery)                         ║
║                                                                                ║
╟────────────────────────────────────────────────────────────────────────────────╢
║Obsada:                                                                         ║
║  Jamie Foxx                                                                    ║
║    Data urodzenia: 13.12.1967 (45 lat podczas premiery)                        ║
║    jako: Django                                                                ║
║  Christoph Waltz                                                               ║
║    Data urodzenia: 4.10.1956 (56 lat podczas premiery)                         ║
║    jako: Dr. King Schultz                                                      ║
║  Leonardo DiCaprio                                                             ║
║    Data urodzenia: 11.11.1974 (38 lat podczas premiery)                        ║
║    jako: Calvin Candie                                                         ║
║                                                                                ║
╟────────────────────────────────────────────────────────────────────────────────╢
║Budżet:    100 mln USD                                                          ║
║Przychód:  425.4 mln USD                                                        ║
║Zysk:      325.4 mln USD                                                        ║
╟────────────────────────────────────────────────────────────────────────────────╢
║Oceny:                                                                          ║
║  IMDb:             8.5                                                         ║
║  Rotten Tomatoes:  88                                                          ║
╟────────────────────────────────────────────────────────────────────────────────╢
║Opis:                                                                           ║
║With the help of a German bounty hunter, a freed slave sets out to rescue his   ║
║wife from a brutal Mississippi plantation owner.                                ║
╚════════════════════════════════════════════════════════════════════════════════╝

╔════════════════════════════════════════════════════════════════════════════════╗
║Tytuł:                                                                          ║
║  Fight Club                                                                    ║
║  (Podziemny krąg)                                                              ║
╟────────────────────────────────────────────────────────────────────────────────╢
║Data wydania: 15.10.1999(16 lat temu)                                           ║
║Czas trwania: 139 min                                                           ║
╟────────────────────────────────────────────────────────────────────────────────╢
║Gatunki:                                                                        ║
║  drama                                                                         ║
║                                                                                ║
╟────────────────────────────────────────────────────────────────────────────────╢
║Reżyseria:                                                                      ║
║  David Fincher                                                                 ║
║    Data urodzenia: 28.8.1962 (37 lat podczas premiery)                         ║
║                                                                                ║
╟────────────────────────────────────────────────────────────────────────────────╢
║Twórcy scenariusza:                                                             ║
║Scenarzyści:                                                                    ║
║  Jim Uhls                                                                      ║
║    Data urodzenia: 25.3.1957 (42 lat podczas premiery)                         ║
║Na podstawie "Fight Club" autorstwa:                                            ║
║  Chuck Palahniuk                                                               ║
║    Data urodzenia: 21.2.1962 (37 lat podczas premiery)                         ║
║                                                                                ║
╟────────────────────────────────────────────────────────────────────────────────╢
║Obsada:                                                                         ║
║  Brad Pitt                                                                     ║
║    Data urodzenia: 18.12.1963 (36 lat podczas premiery)                        ║
║    jako: Tyler Durden                                                          ║
║  Edward Norton                                                                 ║
║    Data urodzenia: 18.8.1969 (30 lat podczas premiery)                         ║
║    jako: The Narrator                                                          ║
║                                                                                ║
╟────────────────────────────────────────────────────────────────────────────────╢
║Budżet:    63 mln USD                                                           ║
║Przychód:  100.9 mln USD                                                        ║
║Zysk:      37.9 mln USD                                                         ║
╟────────────────────────────────────────────────────────────────────────────────╢
║Oceny:                                                                          ║
║  IMDb:             8.9                                                         ║
║  Rotten Tomatoes:  79                                                          ║
╟────────────────────────────────────────────────────────────────────────────────╢
║Opis:                                                                           ║
║An insomniac office worker, looking for a way to change his life, crosses paths ║
║with a devil-may-care soap maker, forming an underground fight club that evolves║
║into something much, much more...                                               ║
╚════════════════════════════════════════════════════════════════════════════════╝

╔════════════════════════════════════════════════════════════════════════════════╗
║Tytuł:                                                                          ║
║  Guardians of the Galaxy                                                       ║
║  (Strażnicy Galaktyki)                                                         ║
╟────────────────────────────────────────────────────────────────────────────────╢
║Data wydania: 21.7.2014(1 lat temu)                                             ║
║Czas trwania: 121 min                                                           ║
╟────────────────────────────────────────────────────────────────────────────────╢
║Gatunki:                                                                        ║
║  action                                                                        ║
║  adventure                                                                     ║
║  science-fiction                                                               ║
║                                                                                ║
╟────────────────────────────────────────────────────────────────────────────────╢
║Reżyseria:                                                                      ║
║  James Gunn                                                                    ║
║    Data urodzenia: 5.8.1970 (44 lat podczas premiery)                          ║
║                                                                                ║
╟────────────────────────────────────────────────────────────────────────────────╢
║Twórcy scenariusza:                                                             ║
║Scenarzyści:                                                                    ║
║  James Gunn                                                                    ║
║    Data urodzenia: 5.8.1970 (44 lat podczas premiery)                          ║
║                                                                                ║
╟────────────────────────────────────────────────────────────────────────────────╢
║Obsada:                                                                         ║
║  Chris Pratt                                                                   ║
║    Data urodzenia: 21.6.1979 (35 lat podczas premiery)                         ║
║    jako: Peter Quill                                                           ║
║  Zoe Saldana                                                                   ║
║    Data urodzenia: 19.6.1978 (36 lat podczas premiery)                         ║
║    jako: Gamora                                                                ║
║                                                                                ║
╟────────────────────────────────────────────────────────────────────────────────╢
║Budżet:    195.9 mln USD                                                        ║
║Przychód:  774.2 mln USD                                                        ║
║Zysk:      578.3 mln USD                                                        ║
╟────────────────────────────────────────────────────────────────────────────────╢
║Oceny:                                                                          ║
║  IMDb:             8.1                                                         ║
║  Rotten Tomatoes:  91                                                          ║
╟────────────────────────────────────────────────────────────────────────────────╢
║Opis:                                                                           ║
║A group of intergalactic criminals are forced to work together to stop a        ║
║fanatical warrior from taking control of the universe.                          ║
╚════════════════════════════════════════════════════════════════════════════════╝

╔════════════════════════════════════════════════════════════════════════════════╗
║Tytuł:                                                                          ║
║  Heat                                                                          ║
║  (Gorączka)                                                                    ║
╟────────────────────────────────────────────────────────────────────────────────╢
║Data wydania: 13.12.1995(20 lat temu)                                           ║
║Czas trwania: 170 min                                                           ║
╟────────────────────────────────────────────────────────────────────────────────╢
║Gatunki:                                                                        ║
║  action                                                                        ║
║  crime                                                                         ║
║  drama                                                                         ║
║                                                                                ║
╟────────────────────────────────────────────────────────────────────────────────╢
║Reżyseria:                                                                      ║
║  Michael Mann                                                                  ║
║    Data urodzenia: 5.2.1943 (52 lat podczas premiery)                          ║
║                                                                                ║
╟────────────────────────────────────────────────────────────────────────────────╢
║Twórcy scenariusza:                                                             ║
║Scenarzyści:                                                                    ║
║  Michael Mann                                                                  ║
║    Data urodzenia: 5.2.1943 (52 lat podczas premiery)                          ║
║                                                                                ║
╟────────────────────────────────────────────────────────────────────────────────╢
║Obsada:                                                                         ║
║  Al Pacino                                                                     ║
║    Data urodzenia: 25.4.1940 (55 lat podczas premiery)                         ║
║    jako: Lt. Vincent Hanna                                                     ║
║  Robert De Niro                                                                ║
║    Data urodzenia: 17.8.1943 (52 lat podczas premiery)                         ║
║    jako: Neil McCauley                                                         ║
║                                                                                ║
╟────────────────────────────────────────────────────────────────────────────────╢
║Budżet:    60 mln USD                                                           ║
║Przychód:  187.4 mln USD                                                        ║
║Zysk:      127.4 mln USD                                                        ║
╟────────────────────────────────────────────────────────────────────────────────╢
║Oceny:                                                                          ║
║  IMDb:             8.3                                                         ║
║  Rotten Tomatoes:  86                                                          ║
╟────────────────────────────────────────────────────────────────────────────────╢
║Opis:                                                                           ║
║A group of professional bank robbers start to feel the heat from police when    ║
║they unknowingly leave a clue at their latest heist.                            ║
╚════════════════════════════════════════════════════════════════════════════════╝

╔════════════════════════════════════════════════════════════════════════════════╗
║Tytuł:                                                                          ║
║  Inception                                                                     ║
║  (Incepcja)                                                                    ║
╟────────────────────────────────────────────────────────────────────────────────╢
║Data wydania: 13.7.2010(5 lat temu)                                             ║
║Czas trwania: 148 min                                                           ║
╟────────────────────────────────────────────────────────────────────────────────╢
║Gatunki:                                                                        ║
║  action                                                                        ║
║  mystery                                                                       ║
║  science-fiction                                                               ║
║                                                                                ║
╟────────────────────────────────────────────────────────────────────────────────╢
║Reżyseria:                                                                      ║
║  Christopher Nolan                                                             ║
║    Data urodzenia: 30.7.1970 (40 lat podczas premiery)                         ║
║                                                                                ║
╟────────────────────────────────────────────────────────────────────────────────╢
║Twórcy scenariusza:                                                             ║
║Scenarzyści:                                                                    ║
║  Christopher Nolan                                                             ║
║    Data urodzenia: 30.7.1970 (40 lat podczas premiery)                         ║
║                                                                                ║
╟────────────────────────────────────────────────────────────────────────────────╢
║Obsada:                                                                         ║
║  Leonardo DiCaprio                                                             ║
║    Data urodzenia: 11.11.1974 (36 lat podczas premiery)                        ║
║    jako: Cobb                                                                  ║
║  Joseph Gordon-Levitt                                                          ║
║    Data urodzenia: 17.2.1981 (29 lat podczas premiery)                         ║
║    jako: Arthur                                                                ║
║                                                                                ║
╟────────────────────────────────────────────────────────────────────────────────╢
║Budżet:    160 mln USD                                                          ║
║Przychód:  825.5 mln USD                                                        ║
║Zysk:      665.5 mln USD                                                        ║
╟────────────────────────────────────────────────────────────────────────────────╢
║Oceny:                                                                          ║
║  IMDb:             8.8                                                         ║
║  Rotten Tomatoes:  86                                                          ║
╟────────────────────────────────────────────────────────────────────────────────╢
║Opis:                                                                           ║
║A thief who steals corporate secrets through use of dream-sharing technology is ║
║given the inverse task of planting an idea into the mind of a CEO.              ║
╚════════════════════════════════════════════════════════════════════════════════╝

╔════════════════════════════════════════════════════════════════════════════════╗
║Tytuł:                                                                          ║
║  Mad Max                                                                       ║
╟────────────────────────────────────────────────────────────────────────────────╢
║Data wydania: 12.4.1979(36 lat temu)                                            ║
║Czas trwania: 93 min                                                            ║
╟────────────────────────────────────────────────────────────────────────────────╢
║Gatunki:                                                                        ║
║  action                                                                        ║
║                                                                                ║
╟────────────────────────────────────────────────────────────────────────────────╢
║Reżyseria:                                                                      ║
║  George Miller                                                                 ║
║    Data urodzenia: 3.3.1945 (34 lat podczas premiery)                          ║
║                                                                                ║
╟────────────────────────────────────────────────────────────────────────────────╢
║Twórcy scenariusza:                                                             ║
║Scenarzyści:                                                                    ║
║  George Miller                                                                 ║
║    Data urodzenia: 3.3.1945 (34 lat podczas premiery)                          ║
║                                                                                ║
╟────────────────────────────────────────────────────────────────────────────────╢
║Obsada:                                                                         ║
║  Mel Gibson                                                                    ║
║    Data urodzenia: 3.1.1956 (23 lat podczas premiery)                          ║
║    jako: Max Rockatansky                                                       ║
║                                                                                ║
╟────────────────────────────────────────────────────────────────────────────────╢
║Budżet:    0.5 mln AUD                                                          ║
║Przychód:  100 mln USD                                                          ║
║Zysk:      99.5 mln AUD                                                         ║
╟────────────────────────────────────────────────────────────────────────────────╢
║Oceny:                                                                          ║
║  IMDb:             7                                                           ║
║  Rotten Tomatoes:  89                                                          ║
╟────────────────────────────────────────────────────────────────────────────────╢
║Opis:                                                                           ║
║In a self-destructing world, a vengeful Australian policeman sets out to stop a ║
║violent motorcycle gang.                                                        ║
╚════════════════════════════════════════════════════════════════════════════════╝

╔════════════════════════════════════════════════════════════════════════════════╗
║Tytuł:                                                                          ║
║  Mad Max 2: The Road Warrior                                                   ║
║  (Wojownik szos)                                                               ║
╟────────────────────────────────────────────────────────────────────────────────╢
║Data wydania: 24.12.1981(34 lat temu)                                           ║
║Czas trwania: 96 min                                                            ║
╟────────────────────────────────────────────────────────────────────────────────╢
║Gatunki:                                                                        ║
║  action                                                                        ║
║                                                                                ║
╟────────────────────────────────────────────────────────────────────────────────╢
║Reżyseria:                                                                      ║
║  George Miller                                                                 ║
║    Data urodzenia: 3.3.1945 (36 lat podczas premiery)                          ║
║                                                                                ║
╟────────────────────────────────────────────────────────────────────────────────╢
║Twórcy scenariusza:                                                             ║
║Scenarzyści:                                                                    ║
║  George Miller                                                                 ║
║    Data urodzenia: 3.3.1945 (36 lat podczas premiery)                          ║
║                                                                                ║
╟────────────────────────────────────────────────────────────────────────────────╢
║Obsada:                                                                         ║
║  Mel Gibson                                                                    ║
║    Data urodzenia: 3.1.1956 (25 lat podczas premiery)                          ║
║    jako: Max Rockatansky                                                       ║
║                                                                                ║
╟────────────────────────────────────────────────────────────────────────────────╢
║Budżet:    4.5 mln AUD                                                          ║
║Przychód:  23.7 mln USD                                                         ║
║Zysk:      19.2 mln AUD                                                         ║
╟────────────────────────────────────────────────────────────────────────────────╢
║Oceny:                                                                          ║
║  IMDb:             7.6                                                         ║
║  Rotten Tomatoes:  98                                                          ║
╟────────────────────────────────────────────────────────────────────────────────╢
║Opis:                                                                           ║
║In the post-apocalyptic Australian wasteland, a cynical drifter agrees to help a║
║small, gasoline rich, community escape a band of bandits.                       ║
╚════════════════════════════════════════════════════════════════════════════════╝

╔════════════════════════════════════════════════════════════════════════════════╗
║Tytuł:                                                                          ║
║  Mad Max Beyond Thunderdome                                                    ║
║  (Mad Max pod Kopułą Gromu)                                                    ║
╟────────────────────────────────────────────────────────────────────────────────╢
║Data wydania: 10.7.1985(30 lat temu)                                            ║
║Czas trwania: 107 min                                                           ║
╟────────────────────────────────────────────────────────────────────────────────╢
║Gatunki:                                                                        ║
║  action                                                                        ║
║                                                                                ║
╟────────────────────────────────────────────────────────────────────────────────╢
║Reżyseria:                                                                      ║
║  George Miller                                                                 ║
║    Data urodzenia: 3.3.1945 (40 lat podczas premiery)                          ║
║  George Ogilvie                                                                ║
║    Data urodzenia: 5.3.1931 (54 lat podczas premiery)                          ║
║                                                                                ║
╟────────────────────────────────────────────────────────────────────────────────╢
║Twórcy scenariusza:                                                             ║
║Scenarzyści:                                                                    ║
║  George Miller                                                                 ║
║    Data urodzenia: 3.3.1945 (40 lat podczas premiery)                          ║
║                                                                                ║
╟────────────────────────────────────────────────────────────────────────────────╢
║Obsada:                                                                         ║
║  Mel Gibson                                                                    ║
║    Data urodzenia: 3.1.1956 (29 lat podczas premiery)                          ║
║    jako: Max Rockatansky                                                       ║
║                                                                                ║
╟────────────────────────────────────────────────────────────────────────────────╢
║Budżet:    12 mln AUD                                                           ║
║Przychód:  36.2 mln USD                                                         ║
║Zysk:      24.2 mln AUD                                                         ║
╟────────────────────────────────────────────────────────────────────────────────╢
║Oceny:                                                                          ║
║  IMDb:             6.2                                                         ║
║  Rotten Tomatoes:  81                                                          ║
╟────────────────────────────────────────────────────────────────────────────────╢
║Opis:                                                                           ║
║After being exiled from the most advanced town in post apocalyptic Australia, a ║
║drifter travels with a group of abandoned children to rebel against the town's  ║
║queen.                                                                          ║
╚════════════════════════════════════════════════════════════════════════════════╝

╔════════════════════════════════════════════════════════════════════════════════╗
║Tytuł:                                                                          ║
║  Mad Max: Fury Road                                                            ║
║  (Mad Max na Drodze Gniewu)                                                    ║
╟────────────────────────────────────────────────────────────────────────────────╢
║Data wydania: 7.5.2015(0 lat temu)                                              ║
║Czas trwania: 120 min                                                           ║
╟────────────────────────────────────────────────────────────────────────────────╢
║Gatunki:                                                                        ║
║  action                                                                        ║
║                                                                                ║
╟────────────────────────────────────────────────────────────────────────────────╢
║Reżyseria:                                                                      ║
║  George Miller                                                                 ║
║    Data urodzenia: 3.3.1945 (70 lat podczas premiery)                          ║
║                                                                                ║
╟────────────────────────────────────────────────────────────────────────────────╢
║Twórcy scenariusza:                                                             ║
║Scenarzyści:                                                                    ║
║  George Miller                                                                 ║
║    Data urodzenia: 3.3.1945 (70 lat podczas premiery)                          ║
║                                                                                ║
╟────────────────────────────────────────────────────────────────────────────────╢
║Obsada:                                                                         ║
║  Tom Hardy                                                                     ║
║    Data urodzenia: 15.9.1977 (38 lat podczas premiery)                         ║
║    jako: Max Rockatansky                                                       ║
║  Charlize Theron                                                               ║
║    Data urodzenia: 7.8.1975 (40 lat podczas premiery)                          ║
║    jako: Imperator Furiosa                                                     ║
║                                                                                ║
╟────────────────────────────────────────────────────────────────────────────────╢
║Budżet:    150 mln USD                                                          ║
║Przychód:  374.7 mln USD                                                        ║
║Zysk:      224.7 mln USD                                                        ║
╟────────────────────────────────────────────────────────────────────────────────╢
║Oceny:                                                                          ║
║  IMDb:             8.2                                                         ║
║  Rotten Tomatoes:  97                                                          ║
╟────────────────────────────────────────────────────────────────────────────────╢
║Opis:                                                                           ║
║A woman rebels against a tyrannical ruler in post apocalyptic Australia in      ║
║search for her homeland with the help of a group of female prisoners, a         ║
║psychotic worshiper, and a drifter named Max.                                   ║
╚════════════════════════════════════════════════════════════════════════════════╝

╔════════════════════════════════════════════════════════════════════════════════╗
║Tytuł:                                                                          ║
║  Snatch                                                                        ║
║  (Przekręt)                                                                    ║
╟────────────────────────────────────────────────────────────────────────────────╢
║Data wydania: 1.9.2000(15 lat temu)                                             ║
║Czas trwania: 104 min                                                           ║
╟────────────────────────────────────────────────────────────────────────────────╢
║Gatunki:                                                                        ║
║  comedy                                                                        ║
║  crime                                                                         ║
║                                                                                ║
╟────────────────────────────────────────────────────────────────────────────────╢
║Reżyseria:                                                                      ║
║  Guy Ritchie                                                                   ║
║    Data urodzenia: 10.9.1968 (32 lat podczas premiery)                         ║
║                                                                                ║
╟────────────────────────────────────────────────────────────────────────────────╢
║Twórcy scenariusza:                                                             ║
║Scenarzyści:                                                                    ║
║  Guy Ritchie                                                                   ║
║    Data urodzenia: 10.9.1968 (32 lat podczas premiery)                         ║
║                                                                                ║
╟────────────────────────────────────────────────────────────────────────────────╢
║Obsada:                                                                         ║
║  Jason Statham                                                                 ║
║    Data urodzenia: 26.7.1967 (33 lat podczas premiery)                         ║
║    jako: Turkish                                                               ║
║  Benicio Del Toro                                                              ║
║    Data urodzenia: 19.2.1967 (33 lat podczas premiery)                         ║
║    jako: Franky Four Fingers                                                   ║
║                                                                                ║
╟────────────────────────────────────────────────────────────────────────────────╢
║Budżet:    10 mln USD                                                           ║
║Przychód:  83.6 mln USD                                                         ║
║Zysk:      73.6 mln USD                                                         ║
╟────────────────────────────────────────────────────────────────────────────────╢
║Oceny:                                                                          ║
║  IMDb:             8.3                                                         ║
║  Rotten Tomatoes:  73                                                          ║
╟────────────────────────────────────────────────────────────────────────────────╢
║Opis:                                                                           ║
║Unscrupulous boxing promoters, violent bookmakers, a Russian gangster,          ║
║incompetent amateur robbers, and supposedly Jewish jewelers fight to track down ║
║a priceless stolen diamond.                                                     ║
╚════════════════════════════════════════════════════════════════════════════════╝

╔════════════════════════════════════════════════════════════════════════════════╗
║Tytuł:                                                                          ║
║  The Dark Knight                                                               ║
║  (Mroczny Rycerz)                                                              ║
╟────────────────────────────────────────────────────────────────────────────────╢
║Data wydania: 14.7.2008(7 lat temu)                                             ║
║Czas trwania: 152 min                                                           ║
╟────────────────────────────────────────────────────────────────────────────────╢
║Gatunki:                                                                        ║
║  action                                                                        ║
║  crime                                                                         ║
║  drama                                                                         ║
║                                                                                ║
╟────────────────────────────────────────────────────────────────────────────────╢
║Reżyseria:                                                                      ║
║  Christopher Nolan                                                             ║
║    Data urodzenia: 30.7.1970 (38 lat podczas premiery)                         ║
║                                                                                ║
╟────────────────────────────────────────────────────────────────────────────────╢
║Twórcy scenariusza:                                                             ║
║Scenarzyści:                                                                    ║
║  Christopher Nolan                                                             ║
║    Data urodzenia: 30.7.1970 (38 lat podczas premiery)                         ║
║  Jonathan Nolan                                                                ║
║    Data urodzenia: 6.6.1976 (32 lat podczas premiery)                          ║
║Twórcy historii:                                                                ║
║  Christopher Nolan                                                             ║
║    Data urodzenia: 30.7.1970 (38 lat podczas premiery)                         ║
║  David S. Goyer                                                                ║
║    Data urodzenia: 22.12.1965 (43 lat podczas premiery)                        ║
║                                                                                ║
╟────────────────────────────────────────────────────────────────────────────────╢
║Obsada:                                                                         ║
║  Christian Bale                                                                ║
║    Data urodzenia: 30.1.1974 (34 lat podczas premiery)                         ║
║    jako: Bruce Wayne                                                           ║
║  Heath Ledger                                                                  ║
║    Data urodzenia: 4.4.1979 (29 lat podczas premiery)                          ║
║    Data śmierci: 22.1.2008                                                     ║
║    jako: Joker                                                                 ║
║                                                                                ║
╟────────────────────────────────────────────────────────────────────────────────╢
║Budżet:    185 mln USD                                                          ║
║Przychód:  1005 mln USD                                                         ║
║Zysk:      820.0 mln USD                                                        ║
╟────────────────────────────────────────────────────────────────────────────────╢
║Oceny:                                                                          ║
║  IMDb:             9.0                                                         ║
║  Rotten Tomatoes:  94                                                          ║
╟────────────────────────────────────────────────────────────────────────────────╢
║Opis:                                                                           ║
║When the menace known as the Joker wreaks havoc and chaos on the people of      ║
║Gotham, the caped crusader must come to terms with one of the greatest          ║
║psychological tests of his ability to fight injustice.                          ║
╚════════════════════════════════════════════════════════════════════════════════╝

╔════════════════════════════════════════════════════════════════════════════════╗
║Tytuł:                                                                          ║
║  The Grand Budapest Hotel                                                      ║
║  (Grand Budapest Hotel)                                                        ║
╟────────────────────────────────────────────────────────────────────────────────╢
║Data wydania: 23.2.2014(1 lat temu)                                             ║
║Czas trwania: 99 min                                                            ║
╟────────────────────────────────────────────────────────────────────────────────╢
║Gatunki:                                                                        ║
║  drama                                                                         ║
║  adventure                                                                     ║
║  comedy                                                                        ║
║                                                                                ║
╟────────────────────────────────────────────────────────────────────────────────╢
║Reżyseria:                                                                      ║
║  Wes Anderson                                                                  ║
║    Data urodzenia: 1.5.1969 (45 lat podczas premiery)                          ║
║                                                                                ║
╟────────────────────────────────────────────────────────────────────────────────╢
║Twórcy scenariusza:                                                             ║
║Scenarzyści:                                                                    ║
║  Wes Anderson                                                                  ║
║    Data urodzenia: 1.5.1969 (45 lat podczas premiery)                          ║
║Twórcy historii:                                                                ║
║  Wes Anderson                                                                  ║
║    Data urodzenia: 1.5.1969 (45 lat podczas premiery)                          ║
║Na podstawie dzieł różnych autorstwa:                                           ║
║  Stefan Zweig                                                                  ║
║    Data urodzenia: 28.11.1881 (133 lat podczas premiery)                       ║
║    Data śmierci: 22.2.1942                                                     ║
║                                                                                ║
╟────────────────────────────────────────────────────────────────────────────────╢
║Obsada:                                                                         ║
║  Ralph Fiennes                                                                 ║
║    Data urodzenia: 22.12.1962 (52 lat podczas premiery)                        ║
║    jako: M. Gustave                                                            ║
║  F. Murray Abraham                                                             ║
║    Data urodzenia: 24.10.1939 (75 lat podczas premiery)                        ║
║    jako: Mr. Moustafa                                                          ║
║                                                                                ║
╟────────────────────────────────────────────────────────────────────────────────╢
║Budżet:    30 mln USD                                                           ║
║Przychód:  158.5 mln USD                                                        ║
║Zysk:      128.5 mln USD                                                        ║
╟────────────────────────────────────────────────────────────────────────────────╢
║Oceny:                                                                          ║
║  IMDb:             8.1                                                         ║
║  Rotten Tomatoes:  92                                                          ║
╟────────────────────────────────────────────────────────────────────────────────╢
║Opis:                                                                           ║
║The adventures of Gustave H, a legendary concierge at a famous hotel from the   ║
║fictional Republic of Zubrowka between the first and second World Wars, and Zero║
║Moustafa, the lobby boy who becomes his most trusted friend.                    ║
╚════════════════════════════════════════════════════════════════════════════════╝

╔════════════════════════════════════════════════════════════════════════════════╗
║Tytuł:                                                                          ║
║  The Green Mile                                                                ║
║  (Zielona mila)                                                                ║
╟────────────────────────────────────────────────────────────────────────────────╢
║Data wydania: 6.12.1999(16 lat temu)                                            ║
║Czas trwania: 189 min                                                           ║
╟────────────────────────────────────────────────────────────────────────────────╢
║Gatunki:                                                                        ║
║  comedy                                                                        ║
║  drama                                                                         ║
║  fantasy                                                                       ║
║                                                                                ║
╟────────────────────────────────────────────────────────────────────────────────╢
║Reżyseria:                                                                      ║
║  Frank Darabont                                                                ║
║    Data urodzenia: 28.1.1959 (40 lat podczas premiery)                         ║
║                                                                                ║
╟────────────────────────────────────────────────────────────────────────────────╢
║Twórcy scenariusza:                                                             ║
║Scenarzyści:                                                                    ║
║  Frank Darabont                                                                ║
║    Data urodzenia: 28.1.1959 (40 lat podczas premiery)                         ║
║Na podstawie "The Green Mile" autorstwa:                                        ║
║  Stephen King                                                                  ║
║    Data urodzenia: 21.9.1947 (52 lat podczas premiery)                         ║
║                                                                                ║
╟────────────────────────────────────────────────────────────────────────────────╢
║Obsada:                                                                         ║
║  Tom Hanks                                                                     ║
║    Data urodzenia: 9.7.1956 (43 lat podczas premiery)                          ║
║    jako: Paul Edgecomb                                                         ║
║  David Morse                                                                   ║
║    Data urodzenia: 11.10.1953 (46 lat podczas premiery)                        ║
║    jako: Brutus 'Brutal' Howell                                                ║
║                                                                                ║
╟────────────────────────────────────────────────────────────────────────────────╢
║Budżet:    60 mln USD                                                           ║
║Przychód:  290.7 mln USD                                                        ║
║Zysk:      230.7 mln USD                                                        ║
╟────────────────────────────────────────────────────────────────────────────────╢
║Oceny:                                                                          ║
║  IMDb:             8.5                                                         ║
║  Rotten Tomatoes:  80                                                          ║
╟────────────────────────────────────────────────────────────────────────────────╢
║Opis:                                                                           ║
║The lives of guards on Death Row are affected by one of their charges: a black  ║
║man accused of child murder and rape, yet who has a mysterious gift.            ║
╚════════════════════════════════════════════════════════════════════════════════╝

╔════════════════════════════════════════════════════════════════════════════════╗
║Tytuł:                                                                          ║
║  The Shining                                                                   ║
║  (Lśnienie)                                                                    ║
╟────────────────────────────────────────────────────────────────────────────────╢
║Data wydania: 23.5.1980(35 lat temu)                                            ║
║Czas trwania: 144 min                                                           ║
╟────────────────────────────────────────────────────────────────────────────────╢
║Gatunki:                                                                        ║
║  horror                                                                        ║
║  thriller                                                                      ║
║                                                                                ║
╟────────────────────────────────────────────────────────────────────────────────╢
║Reżyseria:                                                                      ║
║  Stanley Kubrick                                                               ║
║    Data urodzenia: 26.7.1928 (52 lat podczas premiery)                         ║
║    Data śmierci: 7.3.1999                                                      ║
║                                                                                ║
╟────────────────────────────────────────────────────────────────────────────────╢
║Twórcy scenariusza:                                                             ║
║Scenarzyści:                                                                    ║
║  Stanley Kubrick                                                               ║
║    Data urodzenia: 26.7.1928 (52 lat podczas premiery)                         ║
║    Data śmierci: 7.3.1999                                                      ║
║Na podstawie "The Shining" autorstwa:                                           ║
║  Stephen King                                                                  ║
║    Data urodzenia: 21.9.1947 (33 lat podczas premiery)                         ║
║                                                                                ║
╟────────────────────────────────────────────────────────────────────────────────╢
║Obsada:                                                                         ║
║  Jack Nicholson                                                                ║
║    Data urodzenia: 22.4.1937 (43 lat podczas premiery)                         ║
║    jako: Jack Torrance                                                         ║
║  Shelley Duvall                                                                ║
║    Data urodzenia: 7.7.1949 (31 lat podczas premiery)                          ║
║    jako: Wendy Torrance                                                        ║
║                                                                                ║
╟────────────────────────────────────────────────────────────────────────────────╢
║Budżet:    19 mln USD                                                           ║
║Przychód:  44.4 mln USD                                                         ║
║Zysk:      25.4 mln USD                                                         ║
╟────────────────────────────────────────────────────────────────────────────────╢
║Oceny:                                                                          ║
║  IMDb:             8.4                                                         ║
║  Rotten Tomatoes:  91                                                          ║
╟────────────────────────────────────────────────────────────────────────────────╢
║Opis:                                                                           ║
║A family heads to an isolated hotel for the winter where an evil and spiritual  ║
║presence influences the father into violence, while his psychic son sees        ║
║horrific forebodings from the past and of the future.                           ║
╚════════════════════════════════════════════════════════════════════════════════╝

║                                                                                ║






































2015-12-15T20:53:29+01:00
